1,Puma,Adam Coulon,Georgia Tech,1500.0,Peach
2,Kpan,Kevin Pan,Georgia Tech,2000.0,Falco
3,SS|Flow,Onish,North of GT,2500.0,Shiek
100,Admiral,unknown,unknown,1500.0,unknown
100,SS | Zydin,unknown,unknown,1500.0,unknown
100,Tubesssbm,unknown,unknown,1463.4292807704667,unknown
100,teegeekay,unknown,unknown,1188.2794443920393,unknown
100,FAT,unknown,unknown,1500.0,unknown
100,Zabb,unknown,unknown,1352.1942813841724,unknown
100,Flamin Roy,unknown,unknown,1500.0,unknown
100,Tsuyoi Momonga,unknown,unknown,1500.0,unknown
100,char,unknown,unknown,1241.446172588259,unknown
100,KPan,unknown,unknown,1500.0,unknown
100,DaiRDev1L,unknown,unknown,1500.0,unknown
100,DAB,unknown,unknown,1628.0330128403552,unknown
100,Sartron,unknown,unknown,1602.9701411660837,unknown
100,Pwinkle,unknown,unknown,1500.0,unknown
100,Tlock,unknown,unknown,1222.1060788427496,unknown
100,Taerk,unknown,unknown,1554.275454936215,unknown
100,Fatality,unknown,unknown,1899.6013849992798,unknown
100,Gahtzu,unknown,unknown,1500.0,unknown
100,Cheap,unknown,unknown,1512.6610642940543,unknown
100,Rooktionary,unknown,unknown,1500.0,unknown
100,Doc,unknown,unknown,1500.0,unknown
100,Puma,unknown,unknown,1500.0,unknown
100,BarlessPianist,unknown,unknown,1474.8291473556249,unknown
100,Pengie,unknown,unknown,1500.0,unknown
100,Oil!,unknown,unknown,1500.0,unknown
100,Nightwing,unknown,unknown,1500.0,unknown
100,Fizzi,unknown,unknown,1500.0,unknown
100,Whack,unknown,unknown,1500.0,unknown
100,LambdaKnight,unknown,unknown,1500.0,unknown
100,Nicaboy,unknown,unknown,1500.0,unknown
100,FullMetal,unknown,unknown,1500.0,unknown
100,OleNessie,unknown,unknown,1500.0,unknown
100,WizKick,unknown,unknown,1132.8642808636928,unknown
100,Blea Gelo,unknown,unknown,1500.0,unknown
100,Holla,unknown,unknown,1500.0,unknown
100,DoomChickens,unknown,unknown,1243.0086326019161,unknown
100,Aura,unknown,unknown,1500.0,unknown
100,SS | s0ft,unknown,unknown,1500.0,unknown
100,Hungrybox,unknown,unknown,2004.580400707653,unknown
100,Marsfool,unknown,unknown,1500.0,unknown
100,Rula,unknown,unknown,1500.0,unknown
100,RagingCherry,unknown,unknown,1464.6212401801758,unknown
100,RJ,unknown,unknown,1697.5609227925834,unknown
100,Colbol,unknown,unknown,1500.0,unknown
100,HyperDragon,unknown,unknown,1176.8292791640697,unknown
100,Eliott,unknown,unknown,1500.0,unknown
100,PB&J,unknown,unknown,1500.0,unknown
100,BluEG,unknown,unknown,1500.0,unknown
100,TheDorf,unknown,unknown,1500.0,unknown
100,Apostle,unknown,unknown,1500.0,unknown
100,Ranchaholic,unknown,unknown,1304.1531081581122,unknown
100,XIF,unknown,unknown,1500.0,unknown
100,Plup Is DQ'd,unknown,unknown,1500.0,unknown
100,CAPS LOCKE,unknown,unknown,1500.0,unknown
100,Macho Man Sam,unknown,unknown,1500.0,unknown
100,Cornel,unknown,unknown,1500.0,unknown
100,Sub Scorpion,unknown,unknown,1500.0,unknown
100,JRad,unknown,unknown,1500.0,unknown
100,Austin,unknown,unknown,1537.724958788443,unknown
100,moogle,unknown,unknown,1695.283496190974,unknown
100,MANDREW,unknown,unknown,1104.710107150102,unknown
100,CT Wizzrobe,unknown,unknown,1500.0,unknown
100,Loaf,unknown,unknown,1211.8251696630532,unknown
100,Rum,unknown,unknown,1500.0,unknown
100,Chaos Dunk,unknown,unknown,1500.0,unknown
100,Peter,unknown,unknown,1500.0,unknown
100,EikelmannRUS,unknown,unknown,1500.0,unknown
100,SS | Merck,unknown,unknown,1500.0,unknown
100,Macdaddy,unknown,unknown,1193.2472241277283,unknown
100,Moltov,unknown,unknown,1500.0,unknown
100,Dap,unknown,unknown,1500.0,unknown
100,Medic Zero,unknown,unknown,1500.0,unknown
100,Grizzly,unknown,unknown,1500.0,unknown
100,MoP,unknown,unknown,1500.0,unknown
100,Cultist,unknown,unknown,1500.0,unknown
100,Kevin,unknown,unknown,1500.0,unknown
100,TO | Nova,unknown,unknown,1500.0,unknown
100,Floy,unknown,unknown,1256.3171592018368,unknown
100,Average,unknown,unknown,1269.0454587723548,unknown
100,Doses,unknown,unknown,1500.0,unknown
100,Zylin,unknown,unknown,1500.0,unknown
100,OP,unknown,unknown,1500.0,unknown
100,Crispus,unknown,unknown,1500.0,unknown
100,Een,unknown,unknown,1500.0,unknown
100,Mr. Bonky,unknown,unknown,1500.0,unknown
100,Four Aces,unknown,unknown,1500.0,unknown
100,Shag,unknown,unknown,1500.0,unknown
100,Harriettheguy,unknown,unknown,1500.0,unknown
100,Luis,unknown,unknown,1500.0,unknown
100,Lounis,unknown,unknown,1500.0,unknown
100,DRN,unknown,unknown,1500.0,unknown
100,Blue,unknown,unknown,1500.0,unknown
100,DruggedFox,unknown,unknown,1500.0,unknown
100,Plup,unknown,unknown,1921.1790160519927,unknown
100,Omega,unknown,unknown,1500.0,unknown
100,Flaf,unknown,unknown,1500.0,unknown
100,Uuaa,unknown,unknown,1500.0,unknown
100,Brian Scalabrina,unknown,unknown,1500.0,unknown
100,KMan / DBDI | KMan (P:M),unknown,unknown,1617.0680188665374,unknown
100,The Poonhound,unknown,unknown,1500.0,unknown
100,Cheeseguy,unknown,unknown,1510.864862730606,unknown
100,Pleb,unknown,unknown,1333.3100373945258,unknown
100,Action B,unknown,unknown,1440.7853917645743,unknown
100,Panhandler,unknown,unknown,1500.0,unknown
100,-Chad-,unknown,unknown,1849.1175501950281,unknown
100,Player 1,unknown,unknown,1393.5143622775338,unknown
100,Reflex,unknown,unknown,2092.795542239809,unknown
100,Dr. PP,unknown,unknown,2239.967757928629,unknown
100,The Crow,unknown,unknown,1500.0,unknown
100,ZeonStar,unknown,unknown,1689.4218944844345,unknown
100,Laijin,unknown,unknown,1650.5148782893489,unknown
100,Wenbobular,unknown,unknown,1500.0,unknown
100,Hazard 2KV,unknown,unknown,1815.2807805462287,unknown
100,Tron,unknown,unknown,1500.0,unknown
100,JVictor,unknown,unknown,1191.2159478178855,unknown
100,CritMonkey,unknown,unknown,1500.0,unknown
100,Dr. Kroxas,unknown,unknown,1500.0,unknown
100,Smashing Turnips,unknown,unknown,1500.0,unknown
100,Siren,unknown,unknown,1500.0,unknown
100,Green Mario,unknown,unknown,1500.0,unknown
100,Naerok,unknown,unknown,1576.2251688004437,unknown
100,Gilded Punch,unknown,unknown,1487.6661800573595,unknown
100,Ace,unknown,unknown,1259.475708623065,unknown
100,SS | Flow + SS | Merck,unknown,unknown,1500.0,unknown
100,FAT + Doses,unknown,unknown,1500.0,unknown
100,SS | s0ft + Flamin Roy,unknown,unknown,1500.0,unknown
100,Tsuyoi Momonga + Pwinkle,unknown,unknown,1500.0,unknown
100,Gahtzu + CT Wizzrobe,unknown,unknown,1500.0,unknown
100,Royal Sucka'1,unknown,unknown,1500.0,unknown
100,Tubesssbm + Puma,unknown,unknown,1500.0,unknown
100,Fizzi + Flaf,unknown,unknown,1500.0,unknown
100,Nicaboy + SleepyK,unknown,unknown,1500.0,unknown
100,Blea Gelo + Holla,unknown,unknown,1500.0,unknown
100,Hungrybox + Plup,unknown,unknown,1500.0,unknown
100,RagingCherry + Ranchaholic,unknown,unknown,1500.0,unknown
100,Colbol + Harriettheguy,unknown,unknown,1500.0,unknown
100,XIF + Green Mario,unknown,unknown,1500.0,unknown
100,Rula + JRad,unknown,unknown,1500.0,unknown
100,Sub Scorpion + EikelmannRUS,unknown,unknown,1500.0,unknown
100,DashDancePan,unknown,unknown,1500.0,unknown
100,Homie Rage,unknown,unknown,1500.0,unknown
100,Myz2KV,unknown,unknown,1500.0,unknown
100,Scalabrina the Teenage Witch,unknown,unknown,1500.0,unknown
100,Laijin + Wenbo,unknown,unknown,1500.0,unknown
100,The Rule of Two,unknown,unknown,1500.0,unknown
100,United Federation of Groove Funks,unknown,unknown,1500.0,unknown
100,Jommy Bads-well,unknown,unknown,1500.0,unknown
100,Mario + Luigi,unknown,unknown,1500.0,unknown
100,Dr. PP + Druggedfox,unknown,unknown,1500.0,unknown
100,Mactown,unknown,unknown,1500.0,unknown
100,Moogle + -Chad-,unknown,unknown,1500.0,unknown
100,Puff Puff Pass,unknown,unknown,1500.0,unknown
100,Don't 10 Stock Us Please,unknown,unknown,1500.0,unknown
100,Blackcock Monsters,unknown,unknown,1500.0,unknown
100,Jrad+Rula,unknown,unknown,1500.0,unknown
100,PB&J+Shag,unknown,unknown,1500.0,unknown
100,Uuaa+Pi,unknown,unknown,1500.0,unknown
100,Char + Floy,unknown,unknown,1500.0,unknown
100,SS | Flow,unknown,unknown,1500.0,unknown
100,Ron-a-roni,unknown,unknown,1500.0,unknown
100,dashdancedan,unknown,unknown,1500.0,unknown
